{
  "name": "echo-message",
  "$schema": "../../node_modules/nx/schemas/project-schema.json",
  "sourceRoot": "libs/data-access/src",
  "prefix": "root-project",
  "tags": ["ngrx"],
  "projectType": "library",
  "targets": {}
}
